module gitlab.com/tlj/strava

go 1.17

require (
	github.com/antihax/optional v1.0.0
	golang.org/x/oauth2 v0.0.0-20220411215720-9780585627b5
)

require (
	github.com/golang/protobuf v1.4.2 // indirect
	golang.org/x/net v0.0.0-20220127200216-cd36cc0744dd // indirect
	google.golang.org/appengine v1.6.6 // indirect
	google.golang.org/protobuf v1.25.0 // indirect
)
